{
  "resourceType": "Bundle",
  "type": "transaction",
  "entry": [
    {
      "resource": {
        "resourceType": "Patient",
        "id": "SMART-1614502",
        "text": {
          "status": "generated",
          "div": "<div xmlns=\"http://www.w3.org/1999/xhtml\">\n        <p>Susan Williams</p>\n      </div>"
        },
        "identifier": [
          {
            "use": "usual",
            "type": {
              "coding": [
                {
                  "system": "http://hl7.org/fhir/v2/0203",
                  "code": "MR",
                  "display": "Medical record number",
                  "userSelected": false
                }
              ],
              "text": "Medical record number"
            },
            "system": "http://hospital.smarthealthit.org",
            "value": "1614502"
          }
        ],
        "active": true,
        "name": [
          {
            "use": "official",
            "family": "Williams",
            "given": [
              "Susan",
              "N."
            ]
          }
        ],
        "telecom": [
          {
            "system": "phone",
            "value": "800-651-2242",
            "use": "home"
          },
          {
            "system": "phone",
            "value": "800-471-8810",
            "use": "mobile"
          },
          {
            "system": "email",
            "value": "susan.williams@example.com"
          }
        ],
        "gender": "female",
        "birthDate": "2006-11-22",
        "address": [
          {
            "use": "home",
            "line": [
              "27 South Ave"
            ],
            "city": "Tulsa",
            "state": "OK",
            "postalCode": "74126",
            "country": "USA"
          }
        ]
      },
      "request": {
        "method": "PUT",
        "url": "Patient/SMART-1614502"
      }
    },
    {
      "resource": {
        "resourceType": "MedicationRequest",
        "id": "SMART-MedicationRequest-172",
        "text": {
          "status": "generated",
          "div": "<div xmlns=\"http://www.w3.org/1999/xhtml\">\n      Amoxicillin 40 MG/ML Oral Suspension (rxnorm: 313850)\n    </div>"
        },
        "status": "active",
        "medicationCodeableConcept": {
          "coding": [
            {
              "system": "http://www.nlm.nih.gov/research/umls/rxnorm",
              "code": "313850",
              "display": "Amoxicillin 40 MG/ML Oral Suspension",
              "userSelected": false
            }
          ],
          "text": "Amoxicillin 40 MG/ML Oral Suspension"
        },
        "subject": {
          "reference": "Patient/SMART-1614502"
        },
        "dosageInstruction": [
          {
            "text": "15 mL bid x 10 days",
            "timing": {
              "repeat": {
                "boundsPeriod": {
                  "start": "2007-09-14T00:00:00-06:00"
                },
                "count": 0,
                "frequency": 2,
                "frequencyMax": 0,
                "period": 1,
                "periodUnit": "d"
              }
            },
            "doseQuantity": {
              "value": 15,
              "unit": "mL",
              "system": "http://unitsofmeasure.org",
              "code": "mL"
            }
          }
        ],
        "dispenseRequest": {
          "numberOfRepeatsAllowed": 1,
          "quantity": {
            "value": 1,
            "unit": "mL",
            "system": "http://unitsofmeasure.org",
            "code": "mL"
          },
          "expectedSupplyDuration": {
            "value": 10,
            "unit": "days",
            "system": "http://unitsofmeasure.org",
            "code": "d"
          }
        }
      },
      "request": {
        "method": "PUT",
        "url": "MedicationRequest/SMART-MedicationRequest-172"
      }
    },
    {
      "resource": {
        "resourceType": "MedicationDispense",
        "id": "SMART-MedicationDispense-101",
        "text": {
          "status": "generated",
          "div": "<div xmlns=\"http://www.w3.org/1999/xhtml\">\n      Dispensed 200 tablets = 10 day supply of Amoxicillin 40 MG/ML Oral Suspension\n    </div>"
        },
        "status": "completed",
        "medicationCodeableConcept": {
          "coding": [
            {
              "system": "http://www.nlm.nih.gov/research/umls/rxnorm",
              "code": "313850",
              "display": "Amoxicillin 40 MG/ML Oral Suspension",
              "userSelected": false
            }
          ],
          "text": "Amoxicillin 40 MG/ML Oral Suspension"
        },
        "subject": {
          "reference": "Patient/SMART-1614502"
        },
        "authorizingPrescription": [
          {
            "reference": "MedicationRequest/SMART-MedicationRequest-172"
          }
        ],
        "quantity": {
          "value": 200,
          "unit": "tablets",
          "system": "http://unitsofmeasure.org",
          "code": "{tablets}"
        },
        "daysSupply": {
          "value": 10,
          "unit": "days",
          "system": "http://unitsofmeasure.org",
          "code": "d"
        },
        "whenHandedOver": "2007-09-14T00:00:00-06:00"
      },
      "request": {
        "method": "PUT",
        "url": "MedicationDispense/SMART-MedicationDispense-101"
      }
    },
    {
      "resource": {
        "resourceType": "MedicationRequest",
        "id": "SMART-MedicationRequest-173",
        "text": {
          "status": "generated",
          "div": "<div xmlns=\"http://www.w3.org/1999/xhtml\">\n      Clotrimazole 10 MG/ML Topical Cream (rxnorm: 309367)\n    </div>"
        },
        "status": "active",
        "medicationCodeableConcept": {
          "coding": [
            {
              "system": "http://www.nlm.nih.gov/research/umls/rxnorm",
              "code": "309367",
              "display": "Clotrimazole 10 MG/ML Topical Cream",
              "userSelected": false
            }
          ],
          "text": "Clotrimazole 10 MG/ML Topical Cream"
        },
        "subject": {
          "reference": "Patient/SMART-1614502"
        },
        "dosageInstruction": [
          {
            "text": "apply bid to affected area",
            "timing": {
              "repeat": {
                "boundsPeriod": {
                  "start": "2007-10-28T00:00:00-06:00"
                },
                "count": 0,
                "frequency": 2,
                "frequencyMax": 0,
                "period": 1,
                "periodUnit": "d"
              }
            }
          }
        ],
        "dispenseRequest": {
          "numberOfRepeatsAllowed": 1,
          "quantity": {
            "value": 1,
            "system": "http://unitsofmeasure.org"
          },
          "expectedSupplyDuration": {
            "value": 30,
            "unit": "days",
            "system": "http://unitsofmeasure.org",
            "code": "d"
          }
        }
      },
      "request": {
        "method": "PUT",
        "url": "MedicationRequest/SMART-MedicationRequest-173"
      }
    },
    {
      "resource": {
        "resourceType": "MedicationDispense",
        "id": "SMART-MedicationDispense-100",
        "text": {
          "status": "generated",
          "div": "<div xmlns=\"http://www.w3.org/1999/xhtml\">\n      Dispensed 30 tablets = 7 day supply of Clotrimazole 10 MG/ML Topical Cream\n    </div>"
        },
        "status": "completed",
        "medicationCodeableConcept": {
          "coding": [
            {
              "system": "http://www.nlm.nih.gov/research/umls/rxnorm",
              "code": "309367",
              "display": "Clotrimazole 10 MG/ML Topical Cream",
              "userSelected": false
            }
          ],
          "text": "Clotrimazole 10 MG/ML Topical Cream"
        },
        "subject": {
          "reference": "Patient/SMART-1614502"
        },
        "authorizingPrescription": [
          {
            "reference": "MedicationRequest/SMART-MedicationRequest-173"
          }
        ],
        "quantity": {
          "value": 30,
          "unit": "tablets",
          "system": "http://unitsofmeasure.org",
          "code": "{tablets}"
        },
        "daysSupply": {
          "value": 7,
          "unit": "days",
          "system": "http://unitsofmeasure.org",
          "code": "d"
        },
        "whenHandedOver": "2008-04-03T00:00:00-06:00"
      },
      "request": {
        "method": "PUT",
        "url": "MedicationDispense/SMART-MedicationDispense-100"
      }
    },
    {
      "resource": {
        "resourceType": "MedicationDispense",
        "id": "SMART-MedicationDispense-98",
        "text": {
          "status": "generated",
          "div": "<div xmlns=\"http://www.w3.org/1999/xhtml\">\n      Dispensed 30 tablets = 10 day supply of Clotrimazole 10 MG/ML Topical Cream\n    </div>"
        },
        "status": "completed",
        "medicationCodeableConcept": {
          "coding": [
            {
              "system": "http://www.nlm.nih.gov/research/umls/rxnorm",
              "code": "309367",
              "display": "Clotrimazole 10 MG/ML Topical Cream",
              "userSelected": false
            }
          ],
          "text": "Clotrimazole 10 MG/ML Topical Cream"
        },
        "subject": {
          "reference": "Patient/SMART-1614502"
        },
        "authorizingPrescription": [
          {
            "reference": "MedicationRequest/SMART-MedicationRequest-173"
          }
        ],
        "quantity": {
          "value": 30,
          "unit": "tablets",
          "system": "http://unitsofmeasure.org",
          "code": "{tablets}"
        },
        "daysSupply": {
          "value": 10,
          "unit": "days",
          "system": "http://unitsofmeasure.org",
          "code": "d"
        },
        "whenHandedOver": "2007-10-28T00:00:00-06:00"
      },
      "request": {
        "method": "PUT",
        "url": "MedicationDispense/SMART-MedicationDispense-98"
      }
    },
    {
      "resource": {
        "resourceType": "MedicationRequest",
        "id": "SMART-MedicationRequest-174",
        "text": {
          "status": "generated",
          "div": "<div xmlns=\"http://www.w3.org/1999/xhtml\">\n      Amoxicillin 25 MG/ML Oral Suspension (rxnorm: 313797)\n    </div>"
        },
        "status": "active",
        "medicationCodeableConcept": {
          "coding": [
            {
              "system": "http://www.nlm.nih.gov/research/umls/rxnorm",
              "code": "313797",
              "display": "Amoxicillin 25 MG/ML Oral Suspension",
              "userSelected": false
            }
          ],
          "text": "Amoxicillin 25 MG/ML Oral Suspension"
        },
        "subject": {
          "reference": "Patient/SMART-1614502"
        },
        "dosageInstruction": [
          {
            "text": "10 mL bid x 10 days",
            "timing": {
              "repeat": {
                "boundsPeriod": {
                  "start": "2007-10-28T00:00:00-06:00"
                },
                "count": 0,
                "frequency": 2,
                "frequencyMax": 0,
                "period": 1,
                "periodUnit": "d"
              }
            },
            "doseQuantity": {
              "value": 10,
              "unit": "mL",
              "system": "http://unitsofmeasure.org",
              "code": "mL"
            }
          }
        ],
        "dispenseRequest": {
          "numberOfRepeatsAllowed": 1,
          "quantity": {
            "value": 1,
            "unit": "mL",
            "system": "http://unitsofmeasure.org",
            "code": "mL"
          },
          "expectedSupplyDuration": {
            "value": 10,
            "unit": "days",
            "system": "http://unitsofmeasure.org",
            "code": "d"
          }
        }
      },
      "request": {
        "method": "PUT",
        "url": "MedicationRequest/SMART-MedicationRequest-174"
      }
    },
    {
      "resource": {
        "resourceType": "MedicationDispense",
        "id": "SMART-MedicationDispense-94",
        "text": {
          "status": "generated",
          "div": "<div xmlns=\"http://www.w3.org/1999/xhtml\">\n      Dispensed 150 tablets = 10 day supply of Amoxicillin 25 MG/ML Oral Suspension\n    </div>"
        },
        "status": "completed",
        "medicationCodeableConcept": {
          "coding": [
            {
              "system": "http://www.nlm.nih.gov/research/umls/rxnorm",
              "code": "313797",
              "display": "Amoxicillin 25 MG/ML Oral Suspension",
              "userSelected": false
            }
          ],
          "text": "Amoxicillin 25 MG/ML Oral Suspension"
        },
        "subject": {
          "reference": "Patient/SMART-1614502"
        },
        "authorizingPrescription": [
          {
            "reference": "MedicationRequest/SMART-MedicationRequest-174"
          }
        ],
        "quantity": {
          "value": 150,
          "unit": "tablets",
          "system": "http://unitsofmeasure.org",
          "code": "{tablets}"
        },
        "daysSupply": {
          "value": 10,
          "unit": "days",
          "system": "http://unitsofmeasure.org",
          "code": "d"
        },
        "whenHandedOver": "2007-10-28T00:00:00-06:00"
      },
      "request": {
        "method": "PUT",
        "url": "MedicationDispense/SMART-MedicationDispense-94"
      }
    },
    {
      "resource": {
        "resourceType": "MedicationRequest",
        "id": "SMART-MedicationRequest-175",
        "text": {
          "status": "generated",
          "div": "<div xmlns=\"http://www.w3.org/1999/xhtml\">\n      cefdinir 25 MG/ML Oral Suspension (rxnorm: 309054)\n    </div>"
        },
        "status": "active",
        "medicationCodeableConcept": {
          "coding": [
            {
              "system": "http://www.nlm.nih.gov/research/umls/rxnorm",
              "code": "309054",
              "display": "cefdinir 25 MG/ML Oral Suspension",
              "userSelected": false
            }
          ],
          "text": "cefdinir 25 MG/ML Oral Suspension"
        },
        "subject": {
          "reference": "Patient/SMART-1614502"
        },
        "dosageInstruction": [
          {
            "text": "7 mL bid x 10 days",
            "timing": {
              "repeat": {
                "boundsPeriod": {
                  "start": "2007-12-02T00:00:00-07:00"
                },
                "count": 0,
                "frequency": 2,
                "frequencyMax": 0,
                "period": 1,
                "periodUnit": "d"
              }
            },
            "doseQuantity": {
              "value": 7,
              "unit": "mL",
              "system": "http://unitsofmeasure.org",
              "code": "mL"
            }
          }
        ],
        "dispenseRequest": {
          "numberOfRepeatsAllowed": 1,
          "quantity": {
            "value": 1,
            "unit": "mL",
            "system": "http://unitsofmeasure.org",
            "code": "mL"
          },
          "expectedSupplyDuration": {
            "value": 10,
            "unit": "days",
            "system": "http://unitsofmeasure.org",
            "code": "d"
          }
        }
      },
      "request": {
        "method": "PUT",
        "url": "MedicationRequest/SMART-MedicationRequest-175"
      }
    },
    {
      "resource": {
        "resourceType": "MedicationDispense",
        "id": "SMART-MedicationDispense-109",
        "text": {
          "status": "generated",
          "div": "<div xmlns=\"http://www.w3.org/1999/xhtml\">\n      Dispensed 60 tablets = 10 day supply of cefdinir 25 MG/ML Oral Suspension\n    </div>"
        },
        "status": "completed",
        "medicationCodeableConcept": {
          "coding": [
            {
              "system": "http://www.nlm.nih.gov/research/umls/rxnorm",
              "code": "309054",
              "display": "cefdinir 25 MG/ML Oral Suspension",
              "userSelected": false
            }
          ],
          "text": "cefdinir 25 MG/ML Oral Suspension"
        },
        "subject": {
          "reference": "Patient/SMART-1614502"
        },
        "authorizingPrescription": [
          {
            "reference": "MedicationRequest/SMART-MedicationRequest-175"
          }
        ],
        "quantity": {
          "value": 60,
          "unit": "tablets",
          "system": "http://unitsofmeasure.org",
          "code": "{tablets}"
        },
        "daysSupply": {
          "value": 10,
          "unit": "days",
          "system": "http://unitsofmeasure.org",
          "code": "d"
        },
        "whenHandedOver": "2007-12-02T00:00:00-07:00"
      },
      "request": {
        "method": "PUT",
        "url": "MedicationDispense/SMART-MedicationDispense-109"
      }
    },
    {
      "resource": {
        "resourceType": "MedicationRequest",
        "id": "SMART-MedicationRequest-176",
        "text": {
          "status": "generated",
          "div": "<div xmlns=\"http://www.w3.org/1999/xhtml\">\n      Ibuprofen 20 MG/ML Oral Suspension (rxnorm: 197803)\n    </div>"
        },
        "status": "active",
        "medicationCodeableConcept": {
          "coding": [
            {
              "system": "http://www.nlm.nih.gov/research/umls/rxnorm",
              "code": "197803",
              "display": "Ibuprofen 20 MG/ML Oral Suspension",
              "userSelected": false
            }
          ],
          "text": "Ibuprofen 20 MG/ML Oral Suspension"
        },
        "subject": {
          "reference": "Patient/SMART-1614502"
        },
        "dosageInstruction": [
          {
            "text": "7 mL q6h prn",
            "timing": {
              "repeat": {
                "boundsPeriod": {
                  "start": "2008-04-03T00:00:00-06:00"
                },
                "count": 0,
                "frequency": 4,
                "frequencyMax": 0,
                "period": 1,
                "periodUnit": "d"
              }
            },
            "asNeededBoolean": true,
            "doseQuantity": {
              "value": 7,
              "unit": "mL",
              "system": "http://unitsofmeasure.org",
              "code": "mL"
            }
          }
        ],
        "dispenseRequest": {
          "numberOfRepeatsAllowed": 1,
          "quantity": {
            "value": 1,
            "unit": "mL",
            "system": "http://unitsofmeasure.org",
            "code": "mL"
          },
          "expectedSupplyDuration": {
            "value": 30,
            "unit": "days",
            "system": "http://unitsofmeasure.org",
            "code": "d"
          }
        }
      },
      "request": {
        "method": "PUT",
        "url": "MedicationRequest/SMART-MedicationRequest-176"
      }
    },
    {
      "resource": {
        "resourceType": "MedicationDispense",
        "id": "SMART-MedicationDispense-111",
        "text": {
          "status": "generated",
          "div": "<div xmlns=\"http://www.w3.org/1999/xhtml\">\n      Dispensed 120 tablets = 6 day supply of Ibuprofen 20 MG/ML Oral Suspension\n    </div>"
        },
        "status": "completed",
        "medicationCodeableConcept": {
          "coding": [
            {
              "system": "http://www.nlm.nih.gov/research/umls/rxnorm",
              "code": "197803",
              "display": "Ibuprofen 20 MG/ML Oral Suspension",
              "userSelected": false
            }
          ],
          "text": "Ibuprofen 20 MG/ML Oral Suspension"
        },
        "subject": {
          "reference": "Patient/SMART-1614502"
        },
        "authorizingPrescription": [
          {
            "reference": "MedicationRequest/SMART-MedicationRequest-176"
          }
        ],
        "quantity": {
          "value": 120,
          "unit": "tablets",
          "system": "http://unitsofmeasure.org",
          "code": "{tablets}"
        },
        "daysSupply": {
          "value": 6,
          "unit": "days",
          "system": "http://unitsofmeasure.org",
          "code": "d"
        },
        "whenHandedOver": "2008-04-03T00:00:00-06:00"
      },
      "request": {
        "method": "PUT",
        "url": "MedicationDispense/SMART-MedicationDispense-111"
      }
    },
    {
      "resource": {
        "resourceType": "MedicationRequest",
        "id": "SMART-MedicationRequest-177",
        "text": {
          "status": "generated",
          "div": "<div xmlns=\"http://www.w3.org/1999/xhtml\">\n      Amoxicillin 80 MG/ML Oral Suspension (rxnorm: 308189)\n    </div>"
        },
        "status": "active",
        "medicationCodeableConcept": {
          "coding": [
            {
              "system": "http://www.nlm.nih.gov/research/umls/rxnorm",
              "code": "308189",
              "display": "Amoxicillin 80 MG/ML Oral Suspension",
              "userSelected": false
            }
          ],
          "text": "Amoxicillin 80 MG/ML Oral Suspension"
        },
        "subject": {
          "reference": "Patient/SMART-1614502"
        },
        "dosageInstruction": [
          {
            "text": "7 mL bid x 10 days",
            "timing": {
              "repeat": {
                "boundsPeriod": {
                  "start": "2008-04-03T00:00:00-06:00"
                },
                "count": 0,
                "frequency": 2,
                "frequencyMax": 0,
                "period": 1,
                "periodUnit": "d"
              }
            },
            "doseQuantity": {
              "value": 7,
              "unit": "mL",
              "system": "http://unitsofmeasure.org",
              "code": "mL"
            }
          }
        ],
        "dispenseRequest": {
          "numberOfRepeatsAllowed": 1,
          "quantity": {
            "value": 1,
            "unit": "mL",
            "system": "http://unitsofmeasure.org",
            "code": "mL"
          },
          "expectedSupplyDuration": {
            "value": 10,
            "unit": "days",
            "system": "http://unitsofmeasure.org",
            "code": "d"
          }
        }
      },
      "request": {
        "method": "PUT",
        "url": "MedicationRequest/SMART-MedicationRequest-177"
      }
    },
    {
      "resource": {
        "resourceType": "MedicationDispense",
        "id": "SMART-MedicationDispense-107",
        "text": {
          "status": "generated",
          "div": "<div xmlns=\"http://www.w3.org/1999/xhtml\">\n      Dispensed 150 tablets = 10 day supply of Amoxicillin 80 MG/ML Oral Suspension\n    </div>"
        },
        "status": "completed",
        "medicationCodeableConcept": {
          "coding": [
            {
              "system": "http://www.nlm.nih.gov/research/umls/rxnorm",
              "code": "308189",
              "display": "Amoxicillin 80 MG/ML Oral Suspension",
              "userSelected": false
            }
          ],
          "text": "Amoxicillin 80 MG/ML Oral Suspension"
        },
        "subject": {
          "reference": "Patient/SMART-1614502"
        },
        "authorizingPrescription": [
          {
            "reference": "MedicationRequest/SMART-MedicationRequest-177"
          }
        ],
        "quantity": {
          "value": 150,
          "unit": "tablets",
          "system": "http://unitsofmeasure.org",
          "code": "{tablets}"
        },
        "daysSupply": {
          "value": 10,
          "unit": "days",
          "system": "http://unitsofmeasure.org",
          "code": "d"
        },
        "whenHandedOver": "2008-11-12T00:00:00-07:00"
      },
      "request": {
        "method": "PUT",
        "url": "MedicationDispense/SMART-MedicationDispense-107"
      }
    },
    {
      "resource": {
        "resourceType": "MedicationDispense",
        "id": "SMART-MedicationDispense-105",
        "text": {
          "status": "generated",
          "div": "<div xmlns=\"http://www.w3.org/1999/xhtml\">\n      Dispensed 150 tablets = 10 day supply of Amoxicillin 80 MG/ML Oral Suspension\n    </div>"
        },
        "status": "completed",
        "medicationCodeableConcept": {
          "coding": [
            {
              "system": "http://www.nlm.nih.gov/research/umls/rxnorm",
              "code": "308189",
              "display": "Amoxicillin 80 MG/ML Oral Suspension",
              "userSelected": false
            }
          ],
          "text": "Amoxicillin 80 MG/ML Oral Suspension"
        },
        "subject": {
          "reference": "Patient/SMART-1614502"
        },
        "authorizingPrescription": [
          {
            "reference": "MedicationRequest/SMART-MedicationRequest-177"
          }
        ],
        "quantity": {
          "value": 150,
          "unit": "tablets",
          "system": "http://unitsofmeasure.org",
          "code": "{tablets}"
        },
        "daysSupply": {
          "value": 10,
          "unit": "days",
          "system": "http://unitsofmeasure.org",
          "code": "d"
        },
        "whenHandedOver": "2008-07-11T00:00:00-06:00"
      },
      "request": {
        "method": "PUT",
        "url": "MedicationDispense/SMART-MedicationDispense-105"
      }
    },
    {
      "resource": {
        "resourceType": "MedicationDispense",
        "id": "SMART-MedicationDispense-103",
        "text": {
          "status": "generated",
          "div": "<div xmlns=\"http://www.w3.org/1999/xhtml\">\n      Dispensed 150 tablets = 10 day supply of Amoxicillin 80 MG/ML Oral Suspension\n    </div>"
        },
        "status": "completed",
        "medicationCodeableConcept": {
          "coding": [
            {
              "system": "http://www.nlm.nih.gov/research/umls/rxnorm",
              "code": "308189",
              "display": "Amoxicillin 80 MG/ML Oral Suspension",
              "userSelected": false
            }
          ],
          "text": "Amoxicillin 80 MG/ML Oral Suspension"
        },
        "subject": {
          "reference": "Patient/SMART-1614502"
        },
        "authorizingPrescription": [
          {
            "reference": "MedicationRequest/SMART-MedicationRequest-177"
          }
        ],
        "quantity": {
          "value": 150,
          "unit": "tablets",
          "system": "http://unitsofmeasure.org",
          "code": "{tablets}"
        },
        "daysSupply": {
          "value": 10,
          "unit": "days",
          "system": "http://unitsofmeasure.org",
          "code": "d"
        },
        "whenHandedOver": "2008-04-03T00:00:00-06:00"
      },
      "request": {
        "method": "PUT",
        "url": "MedicationDispense/SMART-MedicationDispense-103"
      }
    },
    {
      "resource": {
        "resourceType": "MedicationRequest",
        "id": "SMART-MedicationRequest-178",
        "text": {
          "status": "generated",
          "div": "<div xmlns=\"http://www.w3.org/1999/xhtml\">\n      Permethrin 10 MG/ML Topical Lotion (rxnorm: 312320)\n    </div>"
        },
        "status": "active",
        "medicationCodeableConcept": {
          "coding": [
            {
              "system": "http://www.nlm.nih.gov/research/umls/rxnorm",
              "code": "312320",
              "display": "Permethrin 10 MG/ML Topical Lotion",
              "userSelected": false
            }
          ],
          "text": "Permethrin 10 MG/ML Topical Lotion"
        },
        "subject": {
          "reference": "Patient/SMART-1614502"
        },
        "dosageInstruction": [
          {
            "text": "apply x1 as directed"
          }
        ],
        "dispenseRequest": {
          "numberOfRepeatsAllowed": 1,
          "quantity": {
            "value": 1,
            "system": "http://unitsofmeasure.org"
          },
          "expectedSupplyDuration": {
            "value": 1,
            "unit": "days",
            "system": "http://unitsofmeasure.org",
            "code": "d"
          }
        }
      },
      "request": {
        "method": "PUT",
        "url": "MedicationRequest/SMART-MedicationRequest-178"
      }
    },
    {
      "resource": {
        "resourceType": "MedicationDispense",
        "id": "SMART-MedicationDispense-95",
        "text": {
          "status": "generated",
          "div": "<div xmlns=\"http://www.w3.org/1999/xhtml\">\n      Dispensed 59 tablets = 7 day supply of Permethrin 10 MG/ML Topical Lotion\n    </div>"
        },
        "status": "completed",
        "medicationCodeableConcept": {
          "coding": [
            {
              "system": "http://www.nlm.nih.gov/research/umls/rxnorm",
              "code": "312320",
              "display": "Permethrin 10 MG/ML Topical Lotion",
              "userSelected": false
            }
          ],
          "text": "Permethrin 10 MG/ML Topical Lotion"
        },
        "subject": {
          "reference": "Patient/SMART-1614502"
        },
        "authorizingPrescription": [
          {
            "reference": "MedicationRequest/SMART-MedicationRequest-178"
          }
        ],
        "quantity": {
          "value": 59,
          "unit": "tablets",
          "system": "http://unitsofmeasure.org",
          "code": "{tablets}"
        },
        "daysSupply": {
          "value": 7,
          "unit": "days",
          "system": "http://unitsofmeasure.org",
          "code": "d"
        },
        "whenHandedOver": "2009-05-01T00:00:00-06:00"
      },
      "request": {
        "method": "PUT",
        "url": "MedicationDispense/SMART-MedicationDispense-95"
      }
    },
    {
      "resource": {
        "resourceType": "MedicationDispense",
        "id": "SMART-MedicationDispense-96",
        "text": {
          "status": "generated",
          "div": "<div xmlns=\"http://www.w3.org/1999/xhtml\">\n      Dispensed 59 tablets = 7 day supply of Permethrin 10 MG/ML Topical Lotion\n    </div>"
        },
        "status": "completed",
        "medicationCodeableConcept": {
          "coding": [
            {
              "system": "http://www.nlm.nih.gov/research/umls/rxnorm",
              "code": "312320",
              "display": "Permethrin 10 MG/ML Topical Lotion",
              "userSelected": false
            }
          ],
          "text": "Permethrin 10 MG/ML Topical Lotion"
        },
        "subject": {
          "reference": "Patient/SMART-1614502"
        },
        "authorizingPrescription": [
          {
            "reference": "MedicationRequest/SMART-MedicationRequest-178"
          }
        ],
        "quantity": {
          "value": 59,
          "unit": "tablets",
          "system": "http://unitsofmeasure.org",
          "code": "{tablets}"
        },
        "daysSupply": {
          "value": 7,
          "unit": "days",
          "system": "http://unitsofmeasure.org",
          "code": "d"
        },
        "whenHandedOver": "2009-05-09T00:00:00-06:00"
      },
      "request": {
        "method": "PUT",
        "url": "MedicationDispense/SMART-MedicationDispense-96"
      }
    },
    {
      "resource": {
        "resourceType": "Condition",
        "id": "SMART-Condition-66",
        "text": {
          "status": "generated",
          "div": "<div xmlns=\"http://www.w3.org/1999/xhtml\">Cervicitis and endocervicitis</div>"
        },
        "clinicalStatus": "active",
        "verificationStatus": "confirmed",
        "code": {
          "coding": [
            {
              "system": "http://snomed.info/sct",
              "code": "237084006",
              "display": "Cervicitis and endocervicitis",
              "userSelected": false
            }
          ],
          "text": "Cervicitis and endocervicitis"
        },
        "subject": {
          "reference": "Patient/SMART-1614502"
        },
        "onsetDateTime": "2007-10-28T00:00:00-06:00"
      },
      "request": {
        "method": "PUT",
        "url": "Condition/SMART-Condition-66"
      }
    },
    {
      "resource": {
        "resourceType": "Condition",
        "id": "SMART-Condition-67",
        "text": {
          "status": "generated",
          "div": "<div xmlns=\"http://www.w3.org/1999/xhtml\">Diaper rash</div>"
        },
        "clinicalStatus": "active",
        "verificationStatus": "confirmed",
        "code": {
          "coding": [
            {
              "system": "http://snomed.info/sct",
              "code": "91487003",
              "display": "Diaper rash",
              "userSelected": false
            }
          ],
          "text": "Diaper rash"
        },
        "subject": {
          "reference": "Patient/SMART-1614502"
        },
        "onsetDateTime": "2007-10-28T00:00:00-06:00"
      },
      "request": {
        "method": "PUT",
        "url": "Condition/SMART-Condition-67"
      }
    },
    {
      "resource": {
        "resourceType": "Condition",
        "id": "SMART-Condition-68",
        "text": {
          "status": "generated",
          "div": "<div xmlns=\"http://www.w3.org/1999/xhtml\">Otitis media</div>"
        },
        "clinicalStatus": "active",
        "verificationStatus": "confirmed",
        "code": {
          "coding": [
            {
              "system": "http://snomed.info/sct",
              "code": "65363002",
              "display": "Otitis media",
              "userSelected": false
            }
          ],
          "text": "Otitis media"
        },
        "subject": {
          "reference": "Patient/SMART-1614502"
        },
        "onsetDateTime": "2007-10-28T00:00:00-06:00"
      },
      "request": {
        "method": "PUT",
        "url": "Condition/SMART-Condition-68"
      }
    },
    {
      "resource": {
        "resourceType": "Condition",
        "id": "SMART-Condition-69",
        "text": {
          "status": "generated",
          "div": "<div xmlns=\"http://www.w3.org/1999/xhtml\">Foreign body in larynx</div>"
        },
        "clinicalStatus": "active",
        "verificationStatus": "confirmed",
        "code": {
          "coding": [
            {
              "system": "http://snomed.info/sct",
              "code": "425229001",
              "display": "Foreign body in larynx",
              "userSelected": false
            }
          ],
          "text": "Foreign body in larynx"
        },
        "subject": {
          "reference": "Patient/SMART-1614502"
        },
        "onsetDateTime": "2007-12-01T00:00:00-07:00"
      },
      "request": {
        "method": "PUT",
        "url": "Condition/SMART-Condition-69"
      }
    },
    {
      "resource": {
        "resourceType": "Condition",
        "id": "SMART-Condition-70",
        "text": {
          "status": "generated",
          "div": "<div xmlns=\"http://www.w3.org/1999/xhtml\">Vomiting</div>"
        },
        "clinicalStatus": "active",
        "verificationStatus": "confirmed",
        "code": {
          "coding": [
            {
              "system": "http://snomed.info/sct",
              "code": "422400008",
              "display": "Vomiting",
              "userSelected": false
            }
          ],
          "text": "Vomiting"
        },
        "subject": {
          "reference": "Patient/SMART-1614502"
        },
        "onsetDateTime": "2007-12-01T00:00:00-07:00"
      },
      "request": {
        "method": "PUT",
        "url": "Condition/SMART-Condition-70"
      }
    },
    {
      "resource": {
        "resourceType": "Condition",
        "id": "SMART-Condition-71",
        "text": {
          "status": "generated",
          "div": "<div xmlns=\"http://www.w3.org/1999/xhtml\">Acute upper respiratory infection</div>"
        },
        "clinicalStatus": "active",
        "verificationStatus": "confirmed",
        "code": {
          "coding": [
            {
              "system": "http://snomed.info/sct",
              "code": "54150009",
              "display": "Acute upper respiratory infection",
              "userSelected": false
            }
          ],
          "text": "Acute upper respiratory infection"
        },
        "subject": {
          "reference": "Patient/SMART-1614502"
        },
        "onsetDateTime": "2008-02-14T00:00:00-07:00"
      },
      "request": {
        "method": "PUT",
        "url": "Condition/SMART-Condition-71"
      }
    },
    {
      "resource": {
        "resourceType": "Condition",
        "id": "SMART-Condition-72",
        "text": {
          "status": "generated",
          "div": "<div xmlns=\"http://www.w3.org/1999/xhtml\">General well-being finding</div>"
        },
        "clinicalStatus": "active",
        "verificationStatus": "confirmed",
        "code": {
          "coding": [
            {
              "system": "http://snomed.info/sct",
              "code": "81302005",
              "display": "General well-being finding",
              "userSelected": false
            }
          ],
          "text": "General well-being finding"
        },
        "subject": {
          "reference": "Patient/SMART-1614502"
        },
        "onsetDateTime": "2008-02-14T00:00:00-07:00"
      },
      "request": {
        "method": "PUT",
        "url": "Condition/SMART-Condition-72"
      }
    },
    {
      "resource": {
        "resourceType": "Condition",
        "id": "SMART-Condition-73",
        "text": {
          "status": "generated",
          "div": "<div xmlns=\"http://www.w3.org/1999/xhtml\">Other and unspecified noninfectious gastroenteritis and colitis</div>"
        },
        "clinicalStatus": "active",
        "verificationStatus": "confirmed",
        "code": {
          "coding": [
            {
              "system": "http://snomed.info/sct",
              "code": "25374005",
              "display": "Other and unspecified noninfectious gastroenteritis and colitis",
              "userSelected": false
            }
          ],
          "text": "Other and unspecified noninfectious gastroenteritis and colitis"
        },
        "subject": {
          "reference": "Patient/SMART-1614502"
        },
        "onsetDateTime": "2008-12-12T00:00:00-07:00"
      },
      "request": {
        "method": "PUT",
        "url": "Condition/SMART-Condition-73"
      }
    },
    {
      "resource": {
        "resourceType": "Immunization",
        "id": "SMART-Immunization-5",
        "text": {
          "status": "generated",
          "div": "<div xmlns=\"http://www.w3.org/1999/xhtml\">measles, mumps and rubella virus vaccine</div>"
        },
        "notGiven": false,
        "vaccineCode": {
          "coding": [
            {
              "system": "http://www2a.cdc.gov/vaccines/IIS/IISStandards/vaccines.asp?rpt=cvx",
              "code": "03",
              "display": "measles, mumps and rubella virus vaccine",
              "userSelected": false
            }
          ]
        },
        "patient": {
          "reference": "Patient/SMART-1614502"
        },
        "date": "2010-03-11T00:00:00-07:00",
        "primarySource": true
      },
      "request": {
        "method": "PUT",
        "url": "Immunization/SMART-Immunization-5"
      }
    },
    {
      "resource": {
        "resourceType": "Immunization",
        "id": "SMART-Immunization-6",
        "text": {
          "status": "generated",
          "div": "<div xmlns=\"http://www.w3.org/1999/xhtml\">measles, mumps and rubella virus vaccine</div>"
        },
        "notGiven": false,
        "vaccineCode": {
          "coding": [
            {
              "system": "http://www2a.cdc.gov/vaccines/IIS/IISStandards/vaccines.asp?rpt=cvx",
              "code": "03",
              "display": "measles, mumps and rubella virus vaccine",
              "userSelected": false
            }
          ]
        },
        "patient": {
          "reference": "Patient/SMART-1614502"
        },
        "date": "2010-06-11T00:00:00-06:00",
        "primarySource": true
      },
      "request": {
        "method": "PUT",
        "url": "Immunization/SMART-Immunization-6"
      }
    },
    {
      "resource": {
        "resourceType": "Observation",
        "id": "SMART-Observation-2-smokingstatus",
        "text": {
          "status": "generated",
          "div": "<div xmlns=\"http://www.w3.org/1999/xhtml\">Tobacco smoking status: Former smoker</div>"
        },
        "status": "final",
        "category": [
          {
            "coding": [
              {
                "system": "http://hl7.org/fhir/observation-category",
                "code": "social-history",
                "display": "Social History",
                "userSelected": false
              }
            ],
            "text": "Social History"
          }
        ],
        "code": {
          "coding": [
            {
              "system": "http://loinc.org",
              "code": "72166-2",
              "display": "Tobacco smoking status",
              "userSelected": false
            }
          ],
          "text": "Tobacco smoking status"
        },
        "subject": {
          "reference": "Patient/SMART-1614502"
        },
        "valueCodeableConcept": {
          "coding": [
            {
              "system": "http://snomed.info/sct",
              "code": "8517006",
              "display": "Former smoker",
              "userSelected": false
            }
          ],
          "text": "Former smoker"
        }
      },
      "request": {
        "method": "PUT",
        "url": "Observation/SMART-Observation-2-smokingstatus"
      }
    },
    {
      "resource": {
        "resourceType": "Observation",
        "id": "SMART-Observation-1614502-gestage",
        "text": {
          "status": "generated",
          "div": "<div xmlns=\"http://www.w3.org/1999/xhtml\">2006-11-22: Gestational age at birth = 45.2 weeks</div>"
        },
        "status": "final",
        "category": [
          {
            "coding": [
              {
                "system": "http://hl7.org/fhir/observation-category",
                "code": "exam",
                "display": "Exam",
                "userSelected": false
              }
            ],
            "text": "Exam"
          }
        ],
        "code": {
          "coding": [
            {
              "system": "http://loinc.org",
              "code": "18185-9",
              "display": "Gestational age at birth",
              "userSelected": false
            }
          ],
          "text": "Gestational age at birth"
        },
        "subject": {
          "reference": "Patient/SMART-1614502"
        },
        "effectiveDateTime": "2006-11-22T00:00:00-07:00",
        "valueQuantity": {
          "value": 45.2,
          "unit": "weeks",
          "system": "http://unitsofmeasure.org",
          "code": "wk"
        }
      },
      "request": {
        "method": "PUT",
        "url": "Observation/SMART-Observation-1614502-gestage"
      }
    },
    {
      "resource": {
        "resourceType": "List",
        "id": "SMART-List-36",
        "text": {
          "status": "generated",
          "div": "<div xmlns=\"http://www.w3.org/1999/xhtml\">No known allergies</div>"
        },
        "mode": "snapshot",
        "code": {
          "coding": [
            {
              "system": "http://loinc.org/",
              "code": "52473-6",
              "display": "Allergy",
              "userSelected": false
            }
          ],
          "text": "Allergy"
        },
        "subject": {
          "reference": "Patient/SMART-1614502"
        },
        "date": "2000-01-01T00:00:00-07:00"
      },
      "request": {
        "method": "PUT",
        "url": "List/SMART-List-36"
      }
    }
  ]
}